ID: DEVICE NAME : DEVICE TYPE
------------------------------------------------------------
8:Microphone (USB Audio Device):Windows WASAPI
9:Internal Microphone (Conexant SmartAudio HD):Windows WASAPI
