21:09:19.893 [] INFO  O1  - start ssl server
21:09:19.893 [] INFO  O1  - SSL server, listening on 0.0.0.0 port: 8458
21:09:19.893 [] INFO  O1  - init RTPS server with deviceId: 9, outDeviceId: -1, channels: 1, sampling frequency: 8000, port: 8455, gain: 1, coder: , monitor: 0, transport one channel: 1
21:09:19.908 [] INFO  O1  - create ServerMediaSession
21:09:19.908 [] INFO  O1  - Create PortaudioServerMediaSubsession
21:09:19.924 [] INFO  O1  - Portaudion Media Subsession, monitor: 0
21:09:19.941 [] INFO  O1  - Add subsession to the session
21:09:19.946 [] INFO  O1  - RTSP server at: rtsp://10.10.0.224:8455/rnk
21:09:19.946 [] INFO  O1  - starting RTPS server
21:09:19.946 [] INFO  O1  - RTPS server started
21:09:30.481 [Th.298c] INFO  O1  - enter processing events loop, do not exit while the RTSP server is running
